Shubham Dutta - Real time qPCR data analysis using R
…
qpcr <- read_csv("qPCR_HEKs_OE_NKG2A-C_human.csv") %>% clean_names()

Rows: 60 Columns: 15
── Column specification ────────────────────────────────────────────────────────
Delimiter: ","
chr (6): Well, Fluor, Target, Content, Sample, Biological Set Name
dbl (8): Cq, Cq Mean, Cq Std. Dev, Starting Quantity (SQ), Log Starting Quan...
lgl (1): Well Note

ℹ Use `spec()` to retrieve the full column specification for this data.
ℹ Specify the column types or set `show_col_types = FALSE` to quiet this message.

tibble(qpcr)

# A tibble: 60 × 15
   well  fluor target content sample   biological_set_name    cq cq_mean
   <chr> <chr> <chr>  <chr>   <chr>    <chr>               <dbl>   <dbl>
 1 A01   SYBR  GAPDH  Unkn    Sample 1 empty vector         14.5    14.5
 2 A02   SYBR  NKG2A  Unkn    Sample 1 empty vector         20.0    20.0
 3 A03   SYBR  NKG2C  Unkn    Sample 1 empty vector         17.5    17.5
 4 A04   SYBR  CD94   Unkn    Sample 1 empty vector         19.8    19.8
 5 A05   SYBR  GAPDH  Unkn    Sample 1 pcDNA-NKG2A          14.5    14.5
 6 A06   SYBR  NKG2A  Unkn    Sample 1 pcDNA-NKG2A          14.3    14.3
 7 A07   SYBR  NKG2C  Unkn    Sample 1 pcDNA-NKG2A          19.2    19.2
 8 A08   SYBR  CD94   Unkn    Sample 1 pcDNA-NKG2A          14.4    14.4
 9 A09   SYBR  GAPDH  Unkn    Sample 1 pcDNA-NKG2C          14.5    14.5
10 A10   SYBR  NKG2A  Unkn    Sample 1 pcDNA-NKG2C          22.3    22.3
# ℹ 50 more rows
# ℹ 7 more variables: cq_std_dev <dbl>, starting_quantity_sq <dbl>,
#   log_starting_quantity <dbl>, sq_mean <dbl>, sq_std_dev <dbl>,
#   set_point <dbl>, well_note <lgl>
…
